{
    "label": "Answers",
    "name": "answer",
    "has_internal_edit": true,
    "search": true,
    "paging": true,
    "browse": {
        "permission": {
            "roles": ["system-admin"]
        },
        "data": {
            "type": "remote",
            "source": {
                "read": {
                    "url": "question/{mid}/answer",
                    "method": "GET",
                    "params": [{
                        "name": "question_id",
                        "value": "[id]"
                    }]
                }
            },
            "pageSize": 10
        },
        "columns": [{
            "field": "title",
            "title": "Title",
            "textAlign": "left"
        }, {
            "field": "correct",
            "title": "Correct",
            "textAlign": "left"
        }, {
            "field": "Delete",
            "width": 80,
            "title": "Remove",
            "sortable": false,
            "type": "delete",
            "textAlign": "left"
        }]
    },
    "edit": {
        "permission": {
            "roles": ["system-admin"]
        },
        "label": "Edit Answer",
        "data": {
            "type": "remote",
            "source": {
                "write": {
                    "url": "question/{sid}/answer_show",
                    "method": "PUT",
                    "params": [{
                        "name": "qid",
                        "value": "{id}"
                    }]
                }
            }
        },
        "validation": {},
        "input": [{
            "label": "Title (EN)",
            "name": "title",
            "type": "text",
            "placeHolder": "Title (EN)",
            "value": "title",
            "required": true
        }, {
            "label": "Title (AR)",
            "name": "title_ar",
            "type": "text",
            "placeHolder": "Title (AR)",
            "value": "title_ar",
            "required": true
        }, {
            "label": "Correct",
            "name": "correct",
            "type": "checkbox",
            "value": "correct",
            "options": {
                "display": "value",
                "value": "id"
            },
            "data": {
                "type": "static",
                "static": [{ "id": 1, "value": "Yes" }, { "id": 0, "value": "No" }]
            }
        }]
    },
    "add": {
        "label": "Answer",
        "permission": {
            "roles": ["system-admin"]
        },
        "data": {
            "type": "remote",
            "source": {
                "write": {
                    "method": "POST",
                    "url": "question/{mid}/answer",
                    "params": [{
                        "name": "question",
                        "value": "[id]"
                    }]
                }
            }
        },
        "validation": {},
        "input": [{
            "label": "Title (EN)",
            "name": "title",
            "type": "text",
            "placeHolder": "Title (EN)",
            "value": "title",
            "required": true
        }, {
            "label": "Title (AR)",
            "name": "title_ar",
            "type": "text",
            "placeHolder": "Title (AR)",
            "value": "title_ar",
            "required": true
        }, {
            "label": "Correct",
            "name": "correct",
            "type": "checkbox",
            "value": "correct",
            "options": {
                "display": "value",
                "value": "id"
            },
            "data": {
                "type": "static",
                "static": [{ "id": 1, "value": "Yes" }, { "id": 0, "value": "No" }]
            }
        }]
    },
    "delete": {
        "data": {
            "type": "remote",
            "source": {
                "delete": {
                    "url": "question/{mid}/answer/{sid}",
                    "params": [{
                        "name": "qid",
                        "value": "[id]"
                    }, {
                        "name": "ans_id",
                        "value": "{id}"
                    }]
                }
            }
        }
    }
}
