{
  "label": "Interactions",
  "name": "interactive_content",
  "has_internal_edit": true,
  "search": false,
  "paging": false,
  "browse": {
    "permission": {
      "roles": [
        "system-admin"
      ]
    },
    "data": {
      "type": "remote",
      "source": {
        "read": {
          "url": "lesson/{mid}/interactive_content",
          "method": "GET",
          "params": [
            {
              "name": "mid",
              "value": "[id]"
            }
          ]
        }
      },
      "pageSize": 10
    },
    "columns": [
      {
        "field": "title",
        "title": "URL",
        "textAlign": "left"
      },
      {
        "field": "exists",
        "title": "Available",
        "textAlign": "left"
      },
      {
        "field": "Delete",
        "permission": ["system-admin", "zisoft"],
        "width": 80,
        "title": "Delete",
        "sortable": false,
        "type": "delete",
        "textAlign": "left"
      }
    ],
    "disable_view": {
      "key": "enable_interactions",
      "title": "Enable interactive content",
      "info_label": true,
      "url": "lesson/{mid}/enable_interactions"
    }
  },
  "edit": {
    "permission": {
      "roles": [
        "system-admin"
      ]
    },
    "label": "Edit File",
    "data": {
      "type": "remote",
      "source": {
        "write": {
          "url": "lesson/{mid}/interactive_content/{sid}",
          "params": [
            {
              "name": "file_type",
              "value": "id"
            },
            {
              "name": "file_data",
              "value": "file_data"
            }
          ]
        }
      }
    },
    "validation": {},
    "input": [
      {
        "name": "file_title",
        "label": "File Type",
        "type": "table_data_item",
        "value": {
          "filter": "id",
          "value": "title"
        },
        "readonly": "true"
      },
      {
        "label": "File",
        "name": "file_data",
        "type": "file",
        "contentType": "text",
        "onEdit": true,
        "placeholder": "Choose File"
      },
      {
        "name": "file_type",
        "type": "hidden",
        "value": "id"
      }
    ],
    "preview": {
      "title": "Interaction Details",
      "items": [
        {
          "name": "json",
          "type": "json",
          "title": "File Content",
          "value": {
            "type": "remote",
            "source": {
              "url": "lesson/{mid}/interactive_content/{id}/download"
            }
          }
        }
      ]
    }
  },
  "add": {},
  "delete": {
    "data": {
      "type": "remote",
      "source": {
        "delete": {
          "url": "lesson/{mid}/interactive_content/{sid}",
          "method": "DELETE",
          "params": [{
            "name": "id",
            "value": "{id}"
          }]
        }
      }
    }
  },
  "preview": {
    "data": {
      "type": "remote",
      "source": {
        "read": {
          "url": "lesson/{mid}/interactive_content/{id}/download"
        }
      }
    }
  },
  "instructions": {
    "en": "/ui/assets/html/interactive_lesson_instructions_en.html",
    "ar": "/ui/assets/html/interactive_lesson_instructions_ar.html"
  }
}
