{
    "label": "Policies",
    "name": "policy",
    "search":true,
    "paging":true,
    "browse": {
      "permission": {
        "roles": ["system-admin"]
      },
      "data": {
        "type": "remote",
        "source": {
          "read": {
            "url": "lesson/{mid}/policy",
            "method": "GET",
            "params": [{
              "name": "mid",
              "value": "[id]"
            }]
          }
        },
        "pageSize": 10
      },
      "columns": [{
        "field": "title",
        "title": "Name",
        "textAlign": "left",
        "sortable":true
      }, {
        "field": "Delete",
        "width": 80,
        "title": "Remove",
        "sortable": false,
        "type": "delete",
        "textAlign": "left"
      }]
    },
    "edit": {},
    "add": {
      "label": "Policy",
      "permission": {
        "roles": ["system-admin"]
      },
      "data": {
        "type": "remote",
        "source": {
          "write": {
            "url": "lesson/{mid}/policy",
            "method": "POST",
            "params": [{
              "name": "mid",
              "value": "[id]"
            }]
          }
        }
      },
      "validation": {},
      "input": [{
        "label": "Policy",
        "name": "policy",
        "type": "select",
        "empty_message": "No policies exist to be added",
        "value": "",
        "options": {
          "display": "title",
          "value": "id"
        },
        "data": {
          "type": "remote",
          "source": {
            "read": {
              "url": "lesson/{mid}/!policy",
              "params": [{
                "name": "mid",
                "value": "[id]"
              }]
            }
          }
        },
        "required": true
      }]
    },
    "delete": {
      "data": {
        "type": "remote",
        "source": {
          "delete": {
            "url": "lesson/{mid}/policy/{sid}",
            "params": [{
              "name": "mid",
              "value": "[id]"
            }, {
              "name": "sid",
              "value": "{id}"
            }]
          }
        }
      }
  }
  }
