{
  "label": "Videos",
  "name": "video",
  "has_internal_edit": false,
  "has_preview_option": true,
  "search": true,
  "paging": true,
  "browse": {
    "permission": {
      "roles": [
        "system-admin"
      ]
    },
    "data": {
      "type": "remote",
      "source": {
        "read": {
          "url": "lesson/{mid}/videos",
          "method": "GET",
          "params": [
            {
              "name": "mid",
              "value": "[id]"
            }
          ]
        }
      },
      "pageSize": 10
    },
    "columns": [
      {
        "field": "url",
        "title": "URL",
        "textAlign": "left"
      },
      {
        "field": "size",
        "title": "Size",
        "textAlign": "left"
      },
      {
        "field": "length",
        "title": "Length",
        "textAlign": "left"
      },
      {
        "field": "resolution",
        "title": "Resolution",
        "textAlign": "left"
      },
      {
        "field": "language_title",
        "title": "Language",
        "textAlign": "left"
      },
      {
        "field": "Delete",
        "width": 80,
        "title": "Remove",
        "sortable": false,
        "type": "delete",
        "textAlign": "left"
      }
    ]
  },
  "preview": {
    "label": "Preview Video File",
    "type": "video",
    "field": "url"
  },
  "add": {
    "label": "Video",
    "permission": {
      "roles": [
        "system-admin"
      ]
    },
    "data": {
      "type": "remote",
      "source": {
        "write": {
          "method": "POST",
          "url": "video/{mid}",
          "params": [
            {
              "name": "mid",
              "value": "[id]"
            }
          ]
        }
      }
    },
    "validation": {},
    "input": [
      {
        "label": "Video",
        "name": "video",
        "type": "file",
        "required": true,
        "placeHolder": "video",
        "value": "video",
        "accept": "video/*",
        "video_max_size_filed": true
      },
      {
        "label": "Language",
        "name": "language",
        "type": "select",
        "options": {
          "display": "title",
          "value": "id"
        },
        "value": "language",
        "data": {
          "type": "remote",
          "source": {
            "read": {
              "url": "language",
              "method": "GET",
              "params": []
            }
          }
        }
      },
      {
        "label": "Resolution",
        "name": "resolution",
        "type": "select",
        "options": {
          "display": "title",
          "value": "id"
        },
        "value": "resolution",
        "data": {
          "type": "remote",
          "source": {
            "read": {
              "url": "resolution",
              "method": "GET",
              "params": []
            }
          }
        }
      }
    ]
  },
  "delete": {
    "data": {
      "type": "remote",
      "source": {
        "delete": {
          "url": "video/{sid}}",
          "params": [
            {
              "name": "sid",
              "value": "{id}"
            }
          ]
        }
      }
    }
  }
}
