{
  "https://cma.staging.zisoft.org/app/index.html" : {
    "transaction" : "https://cma.staging.zisoft.org/app/index.html",
    "sampleCount" : 38,
    "errorCount" : 38,
    "errorPct" : 100.0,
    "meanResTime" : 215.94736842105263,
    "minResTime" : 0.0,
    "maxResTime" : 2022.0,
    "pct1ResTime" : 1093.3000000000002,
    "pct2ResTime" : 2021.05,
    "pct3ResTime" : 2022.0,
    "throughput" : 4.312790829644762,
    "receivedKBytesPerSec" : 0.7893630830779708,
    "sentKBytesPerSec" : 2.854763399443877
  },
  "https://cma.staging.zisoft.org/ui/pages/lesson/2/1-0" : {
    "transaction" : "https://cma.staging.zisoft.org/ui/pages/lesson/2/1-0",
    "sampleCount" : 37,
    "errorCount" : 0,
    "errorPct" : 0.0,
    "meanResTime" : 4.864864864864864,
    "minResTime" : 2.0,
    "maxResTime" : 8.0,
    "pct1ResTime" : 5.200000000000003,
    "pct2ResTime" : 6.200000000000003,
    "pct3ResTime" : 8.0,
    "throughput" : 1.3485930893716285,
    "receivedKBytesPerSec" : 2.915805761590611,
    "sentKBytesPerSec" : 0.7908675531236332
  },
  "https://cma.staging.zisoft.org/app/user" : {
    "transaction" : "https://cma.staging.zisoft.org/app/user",
    "sampleCount" : 78,
    "errorCount" : 41,
    "errorPct" : 52.564102,
    "meanResTime" : 510.7948717948718,
    "minResTime" : 0.0,
    "maxResTime" : 2734.0,
    "pct1ResTime" : 1010.5000000000001,
    "pct2ResTime" : 1514.35,
    "pct3ResTime" : 2734.0,
    "throughput" : 0.7424682309266575,
    "receivedKBytesPerSec" : 22.70711621293608,
    "sentKBytesPerSec" : 0.2853230153253058
  },
  "https://cma.staging.zisoft.org/app/login" : {
    "transaction" : "https://cma.staging.zisoft.org/app/login",
    "sampleCount" : 39,
    "errorCount" : 13,
    "errorPct" : 33.333332,
    "meanResTime" : 9079.94871794872,
    "minResTime" : 245.0,
    "maxResTime" : 46510.0,
    "pct1ResTime" : 32271.0,
    "pct2ResTime" : 33288.0,
    "pct3ResTime" : 46510.0,
    "throughput" : 0.4167289979270404,
    "receivedKBytesPerSec" : 1575.3004651971182,
    "sentKBytesPerSec" : 1.7314351071474365
  },
  "https://cma.staging.zisoft.org/app/my/campaign/2" : {
    "transaction" : "https://cma.staging.zisoft.org/app/my/campaign/2",
    "sampleCount" : 114,
    "errorCount" : 3,
    "errorPct" : 2.631579,
    "meanResTime" : 3397.77192982456,
    "minResTime" : 0.0,
    "maxResTime" : 5245.0,
    "pct1ResTime" : 4455.0,
    "pct2ResTime" : 4812.25,
    "pct3ResTime" : 5226.699999999999,
    "throughput" : 1.8317961243050422,
    "receivedKBytesPerSec" : 254.011667406482,
    "sentKBytesPerSec" : 0.9857735773451811
  },
  "Test" : {
    "transaction" : "Test",
    "sampleCount" : 38,
    "errorCount" : 38,
    "errorPct" : 100.0,
    "meanResTime" : 70323.42105263156,
    "minResTime" : 16414.0,
    "maxResTime" : 128519.0,
    "pct1ResTime" : 95610.30000000002,
    "pct2ResTime" : 120924.69999999998,
    "pct3ResTime" : 128519.0,
    "throughput" : 0.2894135567402894,
    "receivedKBytesPerSec" : 5595.8379769016565,
    "sentKBytesPerSec" : 13.587889137471437
  },
  "https://cma.staging.zisoft.org/ui/pages/lesson/2/1-9" : {
    "transaction" : "https://cma.staging.zisoft.org/ui/pages/lesson/2/1-9",
    "sampleCount" : 36,
    "errorCount" : 0,
    "errorPct" : 0.0,
    "meanResTime" : 13.916666666666668,
    "minResTime" : 1.0,
    "maxResTime" : 106.0,
    "pct1ResTime" : 60.30000000000005,
    "pct2ResTime" : 83.04999999999995,
    "pct3ResTime" : 106.0,
    "throughput" : 1.312096803586398,
    "receivedKBytesPerSec" : 132.89386537795676,
    "sentKBytesPerSec" : 0.865334675802748
  },
  "https://cma.staging.zisoft.org/app/my/campaign/2/2/quiz" : {
    "transaction" : "https://cma.staging.zisoft.org/app/my/campaign/2/2/quiz",
    "sampleCount" : 76,
    "errorCount" : 2,
    "errorPct" : 2.631579,
    "meanResTime" : 1088.1052631578948,
    "minResTime" : 0.0,
    "maxResTime" : 2726.0,
    "pct1ResTime" : 1337.2,
    "pct2ResTime" : 1405.6499999999992,
    "pct3ResTime" : 2726.0,
    "throughput" : 1.5298214537329657,
    "receivedKBytesPerSec" : 9.709483320417077,
    "sentKBytesPerSec" : 0.8341442687050866
  },
  "https://cma.staging.zisoft.org/ui/pages/lesson/2/1-3" : {
    "transaction" : "https://cma.staging.zisoft.org/ui/pages/lesson/2/1-3",
    "sampleCount" : 37,
    "errorCount" : 0,
    "errorPct" : 0.0,
    "meanResTime" : 5.189189189189188,
    "minResTime" : 1.0,
    "maxResTime" : 14.0,
    "pct1ResTime" : 8.200000000000003,
    "pct2ResTime" : 9.500000000000007,
    "pct3ResTime" : 14.0,
    "throughput" : 1.348396501457726,
    "receivedKBytesPerSec" : 0.19620222530976675,
    "sentKBytesPerSec" : 0.8974125364431487
  },
  "https://cma.staging.zisoft.org/ui/pages/lesson/2/1-4" : {
    "transaction" : "https://cma.staging.zisoft.org/ui/pages/lesson/2/1-4",
    "sampleCount" : 37,
    "errorCount" : 0,
    "errorPct" : 0.0,
    "meanResTime" : 5.5675675675675675,
    "minResTime" : 1.0,
    "maxResTime" : 41.0,
    "pct1ResTime" : 7.200000000000003,
    "pct2ResTime" : 12.200000000000045,
    "pct3ResTime" : 41.0,
    "throughput" : 1.3486422453070894,
    "receivedKBytesPerSec" : 0.1975550164024057,
    "sentKBytesPerSec" : 0.9067953230362675
  },
  "https://cma.staging.zisoft.org/app/my/lesson/2/watched/2" : {
    "transaction" : "https://cma.staging.zisoft.org/app/my/lesson/2/watched/2",
    "sampleCount" : 38,
    "errorCount" : 1,
    "errorPct" : 2.631579,
    "meanResTime" : 4888.815789473683,
    "minResTime" : 0.0,
    "maxResTime" : 5698.0,
    "pct1ResTime" : 5418.8,
    "pct2ResTime" : 5554.549999999999,
    "pct3ResTime" : 5698.0,
    "throughput" : 0.8881824981301422,
    "receivedKBytesPerSec" : 121.93867833915716,
    "sentKBytesPerSec" : 1.0356803214986912
  },
  "https://cma.staging.zisoft.org/ui/pages/lesson/2/1-1" : {
    "transaction" : "https://cma.staging.zisoft.org/ui/pages/lesson/2/1-1",
    "sampleCount" : 37,
    "errorCount" : 0,
    "errorPct" : 0.0,
    "meanResTime" : 7.243243243243242,
    "minResTime" : 2.0,
    "maxResTime" : 36.0,
    "pct1ResTime" : 12.800000000000026,
    "pct2ResTime" : 26.100000000000016,
    "pct3ResTime" : 36.0,
    "throughput" : 1.3484456430627938,
    "receivedKBytesPerSec" : 0.19620937579722292,
    "sentKBytesPerSec" : 0.8987620836218521
  },
  "https://cma.staging.zisoft.org/ui/pages/lesson/2/1-2" : {
    "transaction" : "https://cma.staging.zisoft.org/ui/pages/lesson/2/1-2",
    "sampleCount" : 37,
    "errorCount" : 0,
    "errorPct" : 0.0,
    "meanResTime" : 6.297297297297298,
    "minResTime" : 2.0,
    "maxResTime" : 17.0,
    "pct1ResTime" : 8.600000000000009,
    "pct2ResTime" : 11.600000000000009,
    "pct3ResTime" : 17.0,
    "throughput" : 1.3485930893716285,
    "receivedKBytesPerSec" : 0.19491384494824318,
    "sentKBytesPerSec" : 0.8975433736696311
  },
  "https://cma.staging.zisoft.org/ui/pages/lesson/2/1-7" : {
    "transaction" : "https://cma.staging.zisoft.org/ui/pages/lesson/2/1-7",
    "sampleCount" : 37,
    "errorCount" : 0,
    "errorPct" : 0.0,
    "meanResTime" : 18.83783783783784,
    "minResTime" : 4.0,
    "maxResTime" : 114.0,
    "pct1ResTime" : 68.40000000000005,
    "pct2ResTime" : 104.10000000000002,
    "pct3ResTime" : 114.0,
    "throughput" : 1.3484947882498726,
    "receivedKBytesPerSec" : 410.83416332959763,
    "sentKBytesPerSec" : 0.8842734642648882
  },
  "https://cma.staging.zisoft.org/ui/assets/i18n/en.json" : {
    "transaction" : "https://cma.staging.zisoft.org/ui/assets/i18n/en.json",
    "sampleCount" : 40,
    "errorCount" : 0,
    "errorPct" : 0.0,
    "meanResTime" : 258.75,
    "minResTime" : 2.0,
    "maxResTime" : 4839.0,
    "pct1ResTime" : 281.7,
    "pct2ResTime" : 2893.8499999999913,
    "pct3ResTime" : 4839.0,
    "throughput" : 0.5102952057765417,
    "receivedKBytesPerSec" : 0.12857047176791775,
    "sentKBytesPerSec" : 0.13255715306304697
  },
  "https://cma.staging.zisoft.org/ui/pages/lesson/2/1-8" : {
    "transaction" : "https://cma.staging.zisoft.org/ui/pages/lesson/2/1-8",
    "sampleCount" : 36,
    "errorCount" : 0,
    "errorPct" : 0.0,
    "meanResTime" : 98.47222222222224,
    "minResTime" : 3.0,
    "maxResTime" : 1742.0,
    "pct1ResTime" : 218.00000000000006,
    "pct2ResTime" : 463.59999999999786,
    "pct3ResTime" : 1742.0,
    "throughput" : 1.312048983162038,
    "receivedKBytesPerSec" : 2238.7319465135033,
    "sentKBytesPerSec" : 0.8456921627851884
  },
  "https://cma.staging.zisoft.org/app/sso_options_enable" : {
    "transaction" : "https://cma.staging.zisoft.org/app/sso_options_enable",
    "sampleCount" : 40,
    "errorCount" : 0,
    "errorPct" : 0.0,
    "meanResTime" : 709.0250000000001,
    "minResTime" : 82.0,
    "maxResTime" : 5595.0,
    "pct1ResTime" : 1416.1,
    "pct2ResTime" : 3353.5499999999915,
    "pct3ResTime" : 5595.0,
    "throughput" : 0.5114108546953908,
    "receivedKBytesPerSec" : 0.3014776976922585,
    "sentKBytesPerSec" : 0.28514651121907564
  },
  "https://cma.staging.zisoft.org/ui/pages/lesson/2/1-5" : {
    "transaction" : "https://cma.staging.zisoft.org/ui/pages/lesson/2/1-5",
    "sampleCount" : 37,
    "errorCount" : 0,
    "errorPct" : 0.0,
    "meanResTime" : 6.864864864864865,
    "minResTime" : 2.0,
    "maxResTime" : 31.0,
    "pct1ResTime" : 8.200000000000003,
    "pct2ResTime" : 14.800000000000026,
    "pct3ResTime" : 31.0,
    "throughput" : 1.3484456430627938,
    "receivedKBytesPerSec" : 17.657954064014724,
    "sentKBytesPerSec" : 0.8982638192900616
  },
  "https://cma.staging.zisoft.org/ui/-9" : {
    "transaction" : "https://cma.staging.zisoft.org/ui/-9",
    "sampleCount" : 26,
    "errorCount" : 0,
    "errorPct" : 0.0,
    "meanResTime" : 671.3076923076924,
    "minResTime" : 74.0,
    "maxResTime" : 11140.0,
    "pct1ResTime" : 657.4000000000003,
    "pct2ResTime" : 7575.949999999985,
    "pct3ResTime" : 11140.0,
    "throughput" : 0.7528376187167014,
    "receivedKBytesPerSec" : 1370.6144041724576,
    "sentKBytesPerSec" : 0.31098663351285616
  },
  "https://cma.staging.zisoft.org/ui/pages/lesson/2/1-6" : {
    "transaction" : "https://cma.staging.zisoft.org/ui/pages/lesson/2/1-6",
    "sampleCount" : 37,
    "errorCount" : 0,
    "errorPct" : 0.0,
    "meanResTime" : 92.32432432432431,
    "minResTime" : 4.0,
    "maxResTime" : 1374.0,
    "pct1ResTime" : 144.8,
    "pct2ResTime" : 1151.7000000000003,
    "pct3ResTime" : 1374.0,
    "throughput" : 1.3484947882498726,
    "receivedKBytesPerSec" : 1160.4855079520191,
    "sentKBytesPerSec" : 0.8734536158794373
  },
  "https://cma.staging.zisoft.org/ui/-8" : {
    "transaction" : "https://cma.staging.zisoft.org/ui/-8",
    "sampleCount" : 26,
    "errorCount" : 0,
    "errorPct" : 0.0,
    "meanResTime" : 1259.0384615384612,
    "minResTime" : 445.0,
    "maxResTime" : 2288.0,
    "pct1ResTime" : 2196.0,
    "pct2ResTime" : 2270.5,
    "pct3ResTime" : 2288.0,
    "throughput" : 4.035387241968028,
    "receivedKBytesPerSec" : 27540.327802460037,
    "sentKBytesPerSec" : 1.674843337730871
  },
  "https://cma.staging.zisoft.org/ui/-7" : {
    "transaction" : "https://cma.staging.zisoft.org/ui/-7",
    "sampleCount" : 27,
    "errorCount" : 0,
    "errorPct" : 0.0,
    "meanResTime" : 421.5185185185185,
    "minResTime" : 82.0,
    "maxResTime" : 1432.0,
    "pct1ResTime" : 1051.7999999999997,
    "pct2ResTime" : 1409.1999999999998,
    "pct3ResTime" : 1432.0,
    "throughput" : 5.095301000188715,
    "receivedKBytesPerSec" : 11482.5145737993,
    "sentKBytesPerSec" : 2.1197248301566334
  },
  "https://cma.staging.zisoft.org/ui/-6" : {
    "transaction" : "https://cma.staging.zisoft.org/ui/-6",
    "sampleCount" : 28,
    "errorCount" : 0,
    "errorPct" : 0.0,
    "meanResTime" : 637.8214285714287,
    "minResTime" : 140.0,
    "maxResTime" : 1936.0,
    "pct1ResTime" : 1341.4000000000008,
    "pct2ResTime" : 1864.4499999999996,
    "pct3ResTime" : 1936.0,
    "throughput" : 3.5501458095600356,
    "receivedKBytesPerSec" : 14128.304488398631,
    "sentKBytesPerSec" : 1.4734491885381007
  },
  "https://cma.staging.zisoft.org/ui/-5" : {
    "transaction" : "https://cma.staging.zisoft.org/ui/-5",
    "sampleCount" : 38,
    "errorCount" : 0,
    "errorPct" : 0.0,
    "meanResTime" : 496.1578947368422,
    "minResTime" : 38.0,
    "maxResTime" : 6228.0,
    "pct1ResTime" : 897.4000000000009,
    "pct2ResTime" : 1965.3499999999872,
    "pct3ResTime" : 6228.0,
    "throughput" : 0.7396593673965937,
    "receivedKBytesPerSec" : 354.47669555961073,
    "sentKBytesPerSec" : 0.30915450121654503
  },
  "https://cma.staging.zisoft.org/ui/-4" : {
    "transaction" : "https://cma.staging.zisoft.org/ui/-4",
    "sampleCount" : 40,
    "errorCount" : 0,
    "errorPct" : 0.0,
    "meanResTime" : 969.85,
    "minResTime" : 29.0,
    "maxResTime" : 17690.0,
    "pct1ResTime" : 1175.1,
    "pct2ResTime" : 6664.199999999987,
    "pct3ResTime" : 17690.0,
    "throughput" : 0.5133667877356674,
    "receivedKBytesPerSec" : 237.2832429059127,
    "sentKBytesPerSec" : 0.2165766135759847
  },
  "https://cma.staging.zisoft.org/ui/-3" : {
    "transaction" : "https://cma.staging.zisoft.org/ui/-3",
    "sampleCount" : 40,
    "errorCount" : 0,
    "errorPct" : 0.0,
    "meanResTime" : 324.9,
    "minResTime" : 7.0,
    "maxResTime" : 4722.0,
    "pct1ResTime" : 475.59999999999974,
    "pct2ResTime" : 4363.149999999984,
    "pct3ResTime" : 4722.0,
    "throughput" : 0.6992640246140936,
    "receivedKBytesPerSec" : 6.4538518521755845,
    "sentKBytesPerSec" : 0.29090476023984757
  },
  "https://cma.staging.zisoft.org/ui/-2" : {
    "transaction" : "https://cma.staging.zisoft.org/ui/-2",
    "sampleCount" : 40,
    "errorCount" : 0,
    "errorPct" : 0.0,
    "meanResTime" : 506.4500000000001,
    "minResTime" : 6.0,
    "maxResTime" : 7118.0,
    "pct1ResTime" : 1734.6999999999991,
    "pct2ResTime" : 2556.1,
    "pct3ResTime" : 7118.0,
    "throughput" : 0.7641462575937035,
    "receivedKBytesPerSec" : 1.0663720723646506,
    "sentKBytesPerSec" : 0.3186430195239369
  },
  "https://cma.staging.zisoft.org/ui/-1" : {
    "transaction" : "https://cma.staging.zisoft.org/ui/-1",
    "sampleCount" : 40,
    "errorCount" : 0,
    "errorPct" : 0.0,
    "meanResTime" : 851.3249999999998,
    "minResTime" : 4.0,
    "maxResTime" : 16416.0,
    "pct1ResTime" : 1170.4,
    "pct2ResTime" : 2479.549999999996,
    "pct3ResTime" : 16416.0,
    "throughput" : 0.7862871520679352,
    "receivedKBytesPerSec" : 13.443667439849033,
    "sentKBytesPerSec" : 0.32787559954395346
  },
  "https://cma.staging.zisoft.org/app/my/lesson/1/watched/2" : {
    "transaction" : "https://cma.staging.zisoft.org/app/my/lesson/1/watched/2",
    "sampleCount" : 38,
    "errorCount" : 1,
    "errorPct" : 2.631579,
    "meanResTime" : 4488.736842105265,
    "minResTime" : 0.0,
    "maxResTime" : 6499.0,
    "pct1ResTime" : 5650.8,
    "pct2ResTime" : 5738.999999999998,
    "pct3ResTime" : 6499.0,
    "throughput" : 1.2085745181604224,
    "receivedKBytesPerSec" : 185.75174130144393,
    "sentKBytesPerSec" : 1.4091546538070097
  },
  "https://cma.staging.zisoft.org/ui/-0" : {
    "transaction" : "https://cma.staging.zisoft.org/ui/-0",
    "sampleCount" : 40,
    "errorCount" : 0,
    "errorPct" : 0.0,
    "meanResTime" : 195.72500000000002,
    "minResTime" : 16.0,
    "maxResTime" : 1054.0,
    "pct1ResTime" : 634.3,
    "pct2ResTime" : 670.05,
    "pct3ResTime" : 1054.0,
    "throughput" : 0.7754342431761787,
    "receivedKBytesPerSec" : 1.6765736468672456,
    "sentKBytesPerSec" : 0.31502016129032256
  },
  "https://cma.staging.zisoft.org/app/my/campaign" : {
    "transaction" : "https://cma.staging.zisoft.org/app/my/campaign",
    "sampleCount" : 494,
    "errorCount" : 13,
    "errorPct" : 2.631579,
    "meanResTime" : 1024.0850202429149,
    "minResTime" : 0.0,
    "maxResTime" : 3408.0,
    "pct1ResTime" : 1421.0,
    "pct2ResTime" : 1659.25,
    "pct3ResTime" : 3214.15,
    "throughput" : 8.322943693769586,
    "receivedKBytesPerSec" : 126.12673074371567,
    "sentKBytesPerSec" : 4.463568825395087
  },
  "https://cma.staging.zisoft.org/ui/" : {
    "transaction" : "https://cma.staging.zisoft.org/ui/",
    "sampleCount" : 40,
    "errorCount" : 6,
    "errorPct" : 15.0,
    "meanResTime" : 7545.150000000001,
    "minResTime" : 165.0,
    "maxResTime" : 75047.0,
    "pct1ResTime" : 29465.19999999999,
    "pct2ResTime" : 44407.799999999945,
    "pct3ResTime" : 75047.0,
    "throughput" : 0.508356103450467,
    "receivedKBytesPerSec" : 5527.720437404683,
    "sentKBytesPerSec" : 1.822362306983542
  },
  "https://cma.staging.zisoft.org/app/login-3" : {
    "transaction" : "https://cma.staging.zisoft.org/app/login-3",
    "sampleCount" : 21,
    "errorCount" : 1,
    "errorPct" : 4.7619047,
    "meanResTime" : 1919.0476190476188,
    "minResTime" : 127.0,
    "maxResTime" : 12815.0,
    "pct1ResTime" : 7645.600000000003,
    "pct2ResTime" : 12390.599999999995,
    "pct3ResTime" : 12815.0,
    "throughput" : 0.45263498221791143,
    "receivedKBytesPerSec" : 831.7724751454898,
    "sentKBytesPerSec" : 0.2961155566332579
  },
  "https://cma.staging.zisoft.org/app/language" : {
    "transaction" : "https://cma.staging.zisoft.org/app/language",
    "sampleCount" : 152,
    "errorCount" : 4,
    "errorPct" : 2.631579,
    "meanResTime" : 702.9736842105261,
    "minResTime" : 0.0,
    "maxResTime" : 2269.0,
    "pct1ResTime" : 1031.1000000000001,
    "pct2ResTime" : 1110.25,
    "pct3ResTime" : 2160.35,
    "throughput" : 2.4339081840162686,
    "receivedKBytesPerSec" : 2.021991491329202,
    "sentKBytesPerSec" : 1.298799508814911
  },
  "https://cma.staging.zisoft.org/app/login-4" : {
    "transaction" : "https://cma.staging.zisoft.org/app/login-4",
    "sampleCount" : 18,
    "errorCount" : 1,
    "errorPct" : 5.5555553,
    "meanResTime" : 2591.833333333333,
    "minResTime" : 61.0,
    "maxResTime" : 29444.0,
    "pct1ResTime" : 7476.800000000035,
    "pct2ResTime" : 29444.0,
    "pct3ResTime" : 29444.0,
    "throughput" : 0.548579787882482,
    "receivedKBytesPerSec" : 1015.0333540796813,
    "sentKBytesPerSec" : 0.3642912653907107
  },
  "https://cma.staging.zisoft.org/app/login-1" : {
    "transaction" : "https://cma.staging.zisoft.org/app/login-1",
    "sampleCount" : 39,
    "errorCount" : 0,
    "errorPct" : 0.0,
    "meanResTime" : 699.3846153846156,
    "minResTime" : 2.0,
    "maxResTime" : 17126.0,
    "pct1ResTime" : 2092.0,
    "pct2ResTime" : 3122.0,
    "pct3ResTime" : 17126.0,
    "throughput" : 0.49937258316474176,
    "receivedKBytesPerSec" : 1.4434988732105816,
    "sentKBytesPerSec" : 0.29749031265205256
  },
  "https://cma.staging.zisoft.org/app/login-2" : {
    "transaction" : "https://cma.staging.zisoft.org/app/login-2",
    "sampleCount" : 35,
    "errorCount" : 0,
    "errorPct" : 0.0,
    "meanResTime" : 2225.3142857142852,
    "minResTime" : 15.0,
    "maxResTime" : 22307.0,
    "pct1ResTime" : 6244.399999999997,
    "pct2ResTime" : 16351.799999999968,
    "pct3ResTime" : 22307.0,
    "throughput" : 0.37541161201746204,
    "receivedKBytesPerSec" : 177.18091521328745,
    "sentKBytesPerSec" : 0.233951404977958
  },
  "https://cma.staging.zisoft.org/app/login-7" : {
    "transaction" : "https://cma.staging.zisoft.org/app/login-7",
    "sampleCount" : 11,
    "errorCount" : 0,
    "errorPct" : 0.0,
    "meanResTime" : 618.0,
    "minResTime" : 49.0,
    "maxResTime" : 2234.0,
    "pct1ResTime" : 2118.0000000000005,
    "pct2ResTime" : 2234.0,
    "pct3ResTime" : 2234.0,
    "throughput" : 2.513136851724926,
    "receivedKBytesPerSec" : 1453.3097369773818,
    "sentKBytesPerSec" : 1.5727185429517936
  },
  "https://cma.staging.zisoft.org/app/login-8" : {
    "transaction" : "https://cma.staging.zisoft.org/app/login-8",
    "sampleCount" : 11,
    "errorCount" : 0,
    "errorPct" : 0.0,
    "meanResTime" : 458.0,
    "minResTime" : 5.0,
    "maxResTime" : 2149.0,
    "pct1ResTime" : 2136.6,
    "pct2ResTime" : 2149.0,
    "pct3ResTime" : 2149.0,
    "throughput" : 0.5071695329429665,
    "receivedKBytesPerSec" : 0.3506601848863479,
    "sentKBytesPerSec" : 0.30450883800544054
  },
  "https://cma.staging.zisoft.org/app/login-5" : {
    "transaction" : "https://cma.staging.zisoft.org/app/login-5",
    "sampleCount" : 18,
    "errorCount" : 0,
    "errorPct" : 0.0,
    "meanResTime" : 397.6666666666666,
    "minResTime" : 8.0,
    "maxResTime" : 2012.0,
    "pct1ResTime" : 1188.5000000000014,
    "pct2ResTime" : 2012.0,
    "pct3ResTime" : 2012.0,
    "throughput" : 1.3934045517882026,
    "receivedKBytesPerSec" : 1.5131502554575011,
    "sentKBytesPerSec" : 0.8819150119987614
  },
  "https://cma.staging.zisoft.org/app/login-6" : {
    "transaction" : "https://cma.staging.zisoft.org/app/login-6",
    "sampleCount" : 11,
    "errorCount" : 0,
    "errorPct" : 0.0,
    "meanResTime" : 1617.4545454545455,
    "minResTime" : 296.0,
    "maxResTime" : 7932.0,
    "pct1ResTime" : 6805.800000000004,
    "pct2ResTime" : 7932.0,
    "pct3ResTime" : 7932.0,
    "throughput" : 0.9686509334272632,
    "receivedKBytesPerSec" : 4597.702601460682,
    "sentKBytesPerSec" : 0.6033429464600212
  },
  "https://cma.staging.zisoft.org/app/login-0" : {
    "transaction" : "https://cma.staging.zisoft.org/app/login-0",
    "sampleCount" : 39,
    "errorCount" : 0,
    "errorPct" : 0.0,
    "meanResTime" : 552.0512820512824,
    "minResTime" : 178.0,
    "maxResTime" : 3582.0,
    "pct1ResTime" : 1113.0,
    "pct2ResTime" : 1313.0,
    "pct3ResTime" : 3582.0,
    "throughput" : 0.49781090844108605,
    "receivedKBytesPerSec" : 0.48615593049155637,
    "sentKBytesPerSec" : 0.3415968082662139
  },
  "https://cma.staging.zisoft.org/app/login-12" : {
    "transaction" : "https://cma.staging.zisoft.org/app/login-12",
    "sampleCount" : 11,
    "errorCount" : 0,
    "errorPct" : 0.0,
    "meanResTime" : 701.0909090909092,
    "minResTime" : 2.0,
    "maxResTime" : 7078.0,
    "pct1ResTime" : 5766.800000000005,
    "pct2ResTime" : 7078.0,
    "pct3ResTime" : 7078.0,
    "throughput" : 0.32348184090574916,
    "receivedKBytesPerSec" : 1.6423653231142479,
    "sentKBytesPerSec" : 0.19295760733715628
  },
  "https://cma.staging.zisoft.org/app/login-13" : {
    "transaction" : "https://cma.staging.zisoft.org/app/login-13",
    "sampleCount" : 11,
    "errorCount" : 0,
    "errorPct" : 0.0,
    "meanResTime" : 388.27272727272725,
    "minResTime" : 1.0,
    "maxResTime" : 3812.0,
    "pct1ResTime" : 3114.2000000000025,
    "pct2ResTime" : 3812.0,
    "pct3ResTime" : 3812.0,
    "throughput" : 0.3229405202278199,
    "receivedKBytesPerSec" : 0.12488715430685222,
    "sentKBytesPerSec" : 0.19200396519581941
  },
  "https://cma.staging.zisoft.org/app/login-10" : {
    "transaction" : "https://cma.staging.zisoft.org/app/login-10",
    "sampleCount" : 11,
    "errorCount" : 0,
    "errorPct" : 0.0,
    "meanResTime" : 1211.8181818181818,
    "minResTime" : 4.0,
    "maxResTime" : 12389.0,
    "pct1ResTime" : 9959.60000000001,
    "pct2ResTime" : 12389.0,
    "pct3ResTime" : 12389.0,
    "throughput" : 0.6229118296619287,
    "receivedKBytesPerSec" : 3.7046221119542446,
    "sentKBytesPerSec" : 0.3709599212865961
  },
  "https://cma.staging.zisoft.org/app/my/campaign/2/1/quiz" : {
    "transaction" : "https://cma.staging.zisoft.org/app/my/campaign/2/1/quiz",
    "sampleCount" : 38,
    "errorCount" : 1,
    "errorPct" : 2.631579,
    "meanResTime" : 1045.6842105263156,
    "minResTime" : 0.0,
    "maxResTime" : 1393.0,
    "pct1ResTime" : 1300.0,
    "pct2ResTime" : 1327.4499999999998,
    "pct3ResTime" : 1393.0,
    "throughput" : 1.1671478592051108,
    "receivedKBytesPerSec" : 4.019239463035198,
    "sentKBytesPerSec" : 0.6364843126113398
  },
  "https://cma.staging.zisoft.org/app/login-11" : {
    "transaction" : "https://cma.staging.zisoft.org/app/login-11",
    "sampleCount" : 11,
    "errorCount" : 0,
    "errorPct" : 0.0,
    "meanResTime" : 87.45454545454548,
    "minResTime" : 4.0,
    "maxResTime" : 478.0,
    "pct1ResTime" : 423.20000000000016,
    "pct2ResTime" : 478.0,
    "pct3ResTime" : 478.0,
    "throughput" : 0.32577148611028844,
    "receivedKBytesPerSec" : 0.3085921303974412,
    "sentKBytesPerSec" : 0.19400524936326483
  },
  "https://cma.staging.zisoft.org/app/my/lesson/2/watched/2-1" : {
    "transaction" : "https://cma.staging.zisoft.org/app/my/lesson/2/watched/2-1",
    "sampleCount" : 37,
    "errorCount" : 0,
    "errorPct" : 0.0,
    "meanResTime" : 4086.756756756757,
    "minResTime" : 1521.0,
    "maxResTime" : 4694.0,
    "pct1ResTime" : 4478.6,
    "pct2ResTime" : 4626.5,
    "pct3ResTime" : 4694.0,
    "throughput" : 1.0066383719664818,
    "receivedKBytesPerSec" : 140.89507176549407,
    "sentKBytesPerSec" : 0.5879407868783327
  },
  "https://cma.staging.zisoft.org/app/my/lesson/2/watched/2-0" : {
    "transaction" : "https://cma.staging.zisoft.org/app/my/lesson/2/watched/2-0",
    "sampleCount" : 37,
    "errorCount" : 0,
    "errorPct" : 0.0,
    "meanResTime" : 933.8648648648649,
    "minResTime" : 638.0,
    "maxResTime" : 1135.0,
    "pct1ResTime" : 1089.4,
    "pct2ResTime" : 1111.6000000000001,
    "pct3ResTime" : 1135.0,
    "throughput" : 1.1123136123136124,
    "receivedKBytesPerSec" : 1.1026254922739296,
    "sentKBytesPerSec" : 0.6824253040073351
  },
  "https://cma.staging.zisoft.org/app/my/language/1" : {
    "transaction" : "https://cma.staging.zisoft.org/app/my/language/1",
    "sampleCount" : 38,
    "errorCount" : 1,
    "errorPct" : 2.631579,
    "meanResTime" : 763.1578947368422,
    "minResTime" : 0.0,
    "maxResTime" : 1280.0,
    "pct1ResTime" : 1079.5,
    "pct2ResTime" : 1219.1999999999998,
    "pct3ResTime" : 1280.0,
    "throughput" : 1.7818625152396137,
    "receivedKBytesPerSec" : 2.2033788714479976,
    "sentKBytesPerSec" : 1.0495093284019505
  },
  "https://cma.staging.zisoft.org/app/my/lesson/1/watched/2-1" : {
    "transaction" : "https://cma.staging.zisoft.org/app/my/lesson/1/watched/2-1",
    "sampleCount" : 37,
    "errorCount" : 0,
    "errorPct" : 0.0,
    "meanResTime" : 3771.297297297298,
    "minResTime" : 587.0,
    "maxResTime" : 5888.0,
    "pct1ResTime" : 4594.6,
    "pct2ResTime" : 4753.100000000002,
    "pct3ResTime" : 5888.0,
    "throughput" : 1.320108462965606,
    "receivedKBytesPerSec" : 207.01138983784074,
    "sentKBytesPerSec" : 0.7712362971849579
  },
  "https://cma.staging.zisoft.org/app/my/language/2" : {
    "transaction" : "https://cma.staging.zisoft.org/app/my/language/2",
    "sampleCount" : 38,
    "errorCount" : 1,
    "errorPct" : 2.631579,
    "meanResTime" : 714.5526315789473,
    "minResTime" : 0.0,
    "maxResTime" : 1170.0,
    "pct1ResTime" : 1093.9,
    "pct2ResTime" : 1167.15,
    "pct3ResTime" : 1170.0,
    "throughput" : 2.016878085027334,
    "receivedKBytesPerSec" : 2.494922559179449,
    "sentKBytesPerSec" : 1.1886581292128868
  },
  "https://cma.staging.zisoft.org/app/login-9" : {
    "transaction" : "https://cma.staging.zisoft.org/app/login-9",
    "sampleCount" : 11,
    "errorCount" : 0,
    "errorPct" : 0.0,
    "meanResTime" : 596.7272727272727,
    "minResTime" : 5.0,
    "maxResTime" : 2475.0,
    "pct1ResTime" : 2423.4,
    "pct2ResTime" : 2475.0,
    "pct3ResTime" : 2475.0,
    "throughput" : 0.22581704713417639,
    "receivedKBytesPerSec" : 2.5741820226535554,
    "sentKBytesPerSec" : 0.13558244760018065
  },
  "https://cma.staging.zisoft.org/app/my/lesson/1/watched/2-0" : {
    "transaction" : "https://cma.staging.zisoft.org/app/my/lesson/1/watched/2-0",
    "sampleCount" : 37,
    "errorCount" : 0,
    "errorPct" : 0.0,
    "meanResTime" : 837.7837837837839,
    "minResTime" : 80.0,
    "maxResTime" : 1164.0,
    "pct1ResTime" : 1075.0,
    "pct2ResTime" : 1111.8000000000002,
    "pct3ResTime" : 1164.0,
    "throughput" : 1.55442591270008,
    "receivedKBytesPerSec" : 1.5411332079989917,
    "sentKBytesPerSec" : 0.9532592399067344
  },
  "https://cma.staging.zisoft.org/ui/pages/lesson/2/2" : {
    "transaction" : "https://cma.staging.zisoft.org/ui/pages/lesson/2/2",
    "sampleCount" : 38,
    "errorCount" : 1,
    "errorPct" : 2.631579,
    "meanResTime" : 21.473684210526315,
    "minResTime" : 1.0,
    "maxResTime" : 197.0,
    "pct1ResTime" : 20.400000000000006,
    "pct2ResTime" : 40.24999999999953,
    "pct3ResTime" : 197.0,
    "throughput" : 0.8950021197418626,
    "receivedKBytesPerSec" : 163.80758356051862,
    "sentKBytesPerSec" : 5.740323525601771
  },
  "https://cma.staging.zisoft.org/app/my/campaign/2/exam" : {
    "transaction" : "https://cma.staging.zisoft.org/app/my/campaign/2/exam",
    "sampleCount" : 38,
    "errorCount" : 1,
    "errorPct" : 2.631579,
    "meanResTime" : 864.5526315789477,
    "minResTime" : 0.0,
    "maxResTime" : 1421.0,
    "pct1ResTime" : 1269.1,
    "pct2ResTime" : 1324.0999999999997,
    "pct3ResTime" : 1421.0,
    "throughput" : 0.6128636862137926,
    "receivedKBytesPerSec" : 4.5546456680214185,
    "sentKBytesPerSec" : 0.3328918295593833
  },
  "https://cma.staging.zisoft.org/ui/pages/lesson/2/1" : {
    "transaction" : "https://cma.staging.zisoft.org/ui/pages/lesson/2/1",
    "sampleCount" : 38,
    "errorCount" : 1,
    "errorPct" : 2.631579,
    "meanResTime" : 137.49999999999997,
    "minResTime" : 0.0,
    "maxResTime" : 1760.0,
    "pct1ResTime" : 237.50000000000003,
    "pct2ResTime" : 1167.1999999999982,
    "pct3ResTime" : 1760.0,
    "throughput" : 1.2080366225839267,
    "receivedKBytesPerSec" : 3457.9750286113936,
    "sentKBytesPerSec" : 7.639546360392294
  },
  "https://cma.staging.zisoft.org/ui/assets/i18n/ar.json" : {
    "transaction" : "https://cma.staging.zisoft.org/ui/assets/i18n/ar.json",
    "sampleCount" : 38,
    "errorCount" : 1,
    "errorPct" : 2.631579,
    "meanResTime" : 4.578947368421052,
    "minResTime" : 0.0,
    "maxResTime" : 22.0,
    "pct1ResTime" : 7.100000000000001,
    "pct2ResTime" : 17.249999999999986,
    "pct3ResTime" : 22.0,
    "throughput" : 2.016342990555025,
    "receivedKBytesPerSec" : 4.489254599782448,
    "sentKBytesPerSec" : 1.0956403215536454
  },
  "https://cma.staging.zisoft.org/ui/pages/lesson/2/2-8" : {
    "transaction" : "https://cma.staging.zisoft.org/ui/pages/lesson/2/2-8",
    "sampleCount" : 37,
    "errorCount" : 0,
    "errorPct" : 0.0,
    "meanResTime" : 9.216216216216212,
    "minResTime" : 3.0,
    "maxResTime" : 186.0,
    "pct1ResTime" : 5.0,
    "pct2ResTime" : 24.000000000000256,
    "pct3ResTime" : 186.0,
    "throughput" : 1.0499432463110103,
    "receivedKBytesPerSec" : 193.81423586478434,
    "sentKBytesPerSec" : 0.6972833605278093
  },
  "https://cma.staging.zisoft.org/app/user/0" : {
    "transaction" : "https://cma.staging.zisoft.org/app/user/0",
    "sampleCount" : 456,
    "errorCount" : 12,
    "errorPct" : 2.631579,
    "meanResTime" : 733.9232456140354,
    "minResTime" : 0.0,
    "maxResTime" : 3462.0,
    "pct1ResTime" : 1029.3,
    "pct2ResTime" : 1153.8499999999995,
    "pct3ResTime" : 2316.88,
    "throughput" : 7.292033133975117,
    "receivedKBytesPerSec" : 9.212113610196054,
    "sentKBytesPerSec" : 3.8767972722838775
  },
  "https://cma.staging.zisoft.org/ui/pages/lesson/2/2-9" : {
    "transaction" : "https://cma.staging.zisoft.org/ui/pages/lesson/2/2-9",
    "sampleCount" : 37,
    "errorCount" : 0,
    "errorPct" : 0.0,
    "meanResTime" : 4.324324324324325,
    "minResTime" : 3.0,
    "maxResTime" : 7.0,
    "pct1ResTime" : 5.0,
    "pct2ResTime" : 5.200000000000003,
    "pct3ResTime" : 7.0,
    "throughput" : 1.0500922378317015,
    "receivedKBytesPerSec" : 0.15484758585213565,
    "sentKBytesPerSec" : 0.6977980434936852
  },
  "Total" : {
    "transaction" : "Total",
    "sampleCount" : 3436,
    "errorCount" : 144,
    "errorPct" : 4.19092,
    "meanResTime" : 1032.3192665890595,
    "minResTime" : 0.0,
    "maxResTime" : 75047.0,
    "pct1ResTime" : 2314.800000000003,
    "pct2ResTime" : 4283.5999999999985,
    "pct3ResTime" : 7103.200000000004,
    "throughput" : 21.59756618811757,
    "receivedKBytesPerSec" : 9088.060730976415,
    "sentKBytesPerSec" : 16.786308442992105
  },
  "https://cma.staging.zisoft.org/app/my/lesson/2/quiz/2" : {
    "transaction" : "https://cma.staging.zisoft.org/app/my/lesson/2/quiz/2",
    "sampleCount" : 38,
    "errorCount" : 1,
    "errorPct" : 2.631579,
    "meanResTime" : 848.5526315789474,
    "minResTime" : 0.0,
    "maxResTime" : 2125.0,
    "pct1ResTime" : 1073.6,
    "pct2ResTime" : 1166.449999999997,
    "pct3ResTime" : 2125.0,
    "throughput" : 0.8573426888974122,
    "receivedKBytesPerSec" : 0.5605820835119464,
    "sentKBytesPerSec" : 0.6438001996705999
  },
  "https://cma.staging.zisoft.org/ui/pages/lesson/2/2-2" : {
    "transaction" : "https://cma.staging.zisoft.org/ui/pages/lesson/2/2-2",
    "sampleCount" : 37,
    "errorCount" : 0,
    "errorPct" : 0.0,
    "meanResTime" : 6.27027027027027,
    "minResTime" : 4.0,
    "maxResTime" : 14.0,
    "pct1ResTime" : 7.0,
    "pct2ResTime" : 9.500000000000007,
    "pct3ResTime" : 14.0,
    "throughput" : 1.0499432463110103,
    "receivedKBytesPerSec" : 0.1517496098183882,
    "sentKBytesPerSec" : 0.6987243721623155
  },
  "https://cma.staging.zisoft.org/ui/pages/lesson/2/2-3" : {
    "transaction" : "https://cma.staging.zisoft.org/ui/pages/lesson/2/2-3",
    "sampleCount" : 37,
    "errorCount" : 0,
    "errorPct" : 0.0,
    "meanResTime" : 4.972972972972972,
    "minResTime" : 1.0,
    "maxResTime" : 14.0,
    "pct1ResTime" : 7.200000000000003,
    "pct2ResTime" : 8.600000000000009,
    "pct3ResTime" : 14.0,
    "throughput" : 1.050032636149502,
    "receivedKBytesPerSec" : 0.15278795193972244,
    "sentKBytesPerSec" : 0.6987838600051083
  },
  "https://cma.staging.zisoft.org/ui/pages/lesson/2/2-0" : {
    "transaction" : "https://cma.staging.zisoft.org/ui/pages/lesson/2/2-0",
    "sampleCount" : 37,
    "errorCount" : 0,
    "errorPct" : 0.0,
    "meanResTime" : 5.108108108108109,
    "minResTime" : 2.0,
    "maxResTime" : 20.0,
    "pct1ResTime" : 5.200000000000003,
    "pct2ResTime" : 9.200000000000017,
    "pct3ResTime" : 20.0,
    "throughput" : 1.0499730412327253,
    "receivedKBytesPerSec" : 2.270156555946537,
    "sentKBytesPerSec" : 0.6156896921734443
  },
  "https://cma.staging.zisoft.org/ui/pages/lesson/2/2-1" : {
    "transaction" : "https://cma.staging.zisoft.org/ui/pages/lesson/2/2-1",
    "sampleCount" : 37,
    "errorCount" : 0,
    "errorPct" : 0.0,
    "meanResTime" : 4.783783783783784,
    "minResTime" : 2.0,
    "maxResTime" : 8.0,
    "pct1ResTime" : 7.0,
    "pct2ResTime" : 7.100000000000001,
    "pct3ResTime" : 8.0,
    "throughput" : 1.0498836615402078,
    "receivedKBytesPerSec" : 0.152766274970206,
    "sentKBytesPerSec" : 0.6997099962402815
  },
  "https://cma.staging.zisoft.org/ui/pages/lesson/2/2-6" : {
    "transaction" : "https://cma.staging.zisoft.org/ui/pages/lesson/2/2-6",
    "sampleCount" : 37,
    "errorCount" : 0,
    "errorPct" : 0.0,
    "meanResTime" : 6.054054054054054,
    "minResTime" : 4.0,
    "maxResTime" : 12.0,
    "pct1ResTime" : 8.0,
    "pct2ResTime" : 9.300000000000004,
    "pct3ResTime" : 12.0,
    "throughput" : 1.0499432463110103,
    "receivedKBytesPerSec" : 0.15482561542281498,
    "sentKBytesPerSec" : 0.6997497073637912
  },
  "https://cma.staging.zisoft.org/ui/pages/lesson/2/2-7" : {
    "transaction" : "https://cma.staging.zisoft.org/ui/pages/lesson/2/2-7",
    "sampleCount" : 37,
    "errorCount" : 0,
    "errorPct" : 0.0,
    "meanResTime" : 5.027027027027028,
    "minResTime" : 3.0,
    "maxResTime" : 7.0,
    "pct1ResTime" : 7.0,
    "pct2ResTime" : 7.0,
    "pct3ResTime" : 7.0,
    "throughput" : 1.0499730412327253,
    "receivedKBytesPerSec" : 0.15483000900990382,
    "sentKBytesPerSec" : 0.7007949289139874
  },
  "https://cma.staging.zisoft.org/ui/pages/lesson/2/2-4" : {
    "transaction" : "https://cma.staging.zisoft.org/ui/pages/lesson/2/2-4",
    "sampleCount" : 37,
    "errorCount" : 0,
    "errorPct" : 0.0,
    "meanResTime" : 4.62162162162162,
    "minResTime" : 1.0,
    "maxResTime" : 9.0,
    "pct1ResTime" : 7.0,
    "pct2ResTime" : 7.200000000000003,
    "pct3ResTime" : 9.0,
    "throughput" : 1.0498538716908323,
    "receivedKBytesPerSec" : 0.15378718823596174,
    "sentKBytesPerSec" : 0.7058416298981357
  },
  "https://cma.staging.zisoft.org/ui/pages/lesson/2/2-5" : {
    "transaction" : "https://cma.staging.zisoft.org/ui/pages/lesson/2/2-5",
    "sampleCount" : 37,
    "errorCount" : 0,
    "errorPct" : 0.0,
    "meanResTime" : 5.891891891891892,
    "minResTime" : 2.0,
    "maxResTime" : 19.0,
    "pct1ResTime" : 7.0,
    "pct2ResTime" : 9.100000000000016,
    "pct3ResTime" : 19.0,
    "throughput" : 1.0498538716908323,
    "receivedKBytesPerSec" : 0.15378718823596174,
    "sentKBytesPerSec" : 0.7017406382118434
  }
}