{
    "label": "Certificate",
    "name": "certificate",
    "has_internal_edit": true,
    "search":true,
    "paging":true,
    "browse": {
      "permission": {
        "roles": ["system-admin"]
      },
      "data": {
        "type": "remote",
        "source": {
          "read": {
            "url": "email/{mid}/certificate",
            "method": "GET",
            "params": [{
              "name": "mid",
              "value": "[id]"
            }]
          }
        },
        "pageSize": 10
      },
      "columns": [{
        "field": "title",
        "title": "Title",
        "textAlign": "left",
        "sortable":true
      },{
        "field": "context",
        "title": "Context",
        "textAlign": "left",
        "sortable":true
      }]
    },
    "edit": {
      "label": "Regenerate Certificate",
      "permission": {
          "roles": ["system-admin"]
      },
      "data": {
          "type": "remote",
          "source": {
              "write": {
                  "url": "campaign/{mid}/regenerate/{sid}",
                  "params": [{
                          "name": "mid",
                          "value": "{id}"
                      }, {
                          "name": "sid",
                          "value": "[id]"
                      }]
              }
          }
      },
      "validation": {
      },
      "input": [{
        "label": "Regenerate",
        "name": "regenerate",
        "type": "radio",
        "value": "regenerate",
        "required": true,
        "data": {
          "type": "static",
          "static":[{"id": 1, "label": "system", "checked": true },{"id": 2, "label": "system_and_email" }]
        }
      }]
    },
    "add": {},
    "delete": {}
  }
