{
    "label": "Email Campaigns",
    "name": "email_campaign",
    "search":true,
    "paging":true,
    "browse": {
      "permission": {
        "roles": ["system-admin"]
      },
      "data": {
        "type": "remote",
        "source": {
          "read": {
            "url": "emailcampaignnormal",
            "method": "GET"
          }
        }
      },
      "columns": [{
        "field": "title",
        "title": "Title",
        "textAlign": "left",
        "sortable":true
      }, {
        "field": "context",
        "title": "Context",
        "sortable": true,
        "textAlign": "left"
      }, {
        "field": "name",
        "title": "Sender Name",
        "sortable": true,
        "textAlign": "left"
      },{
          "field": "Delete",
          "width": 80,
          "title": "Delete",
          "sortable": false,
          "type": "delete",
          "textAlign": "left"
      }],
      "model_tabs": [
        {
          "field": "Edit",
          "width": 80,
          "title": "Email Campaign Details",
          "sortable": false,
          "type": "edit",
          "textAlign": "left",
          "conditionNotEqual":"context",
          "conditionValue": ["reset_password","user_login"]

        },
        {
          "field": "user",
          "width": 80,
          "title": "Users",
          "sortable": false,
          "type": "tabs",
          "tabs": "users",
          "textAlign": "left",
          "conditionNotEqual":"context",
          "conditionValue": ["reset_password","user_login"]
        },
        {
          "field": "send",
          "width": 80,
          "title": "Send",
          "sortable": false,
          "type": "sendPost",
          "textAlign": "left",
          "message": "Use this button to confirm sending to users",
          "conditionNotEqual":"context",
          "conditionValue": ["reset_password","user_login"]
        },
        {
          "field": "sent",
          "width": 80,
          "title": "Sent Emails",
          "type": "relation_server_side",
          "textAlign": "left"
        }
      ]
    },
    "edit": {
      "permission": {
        "roles": ["system-admin"]
      },
      "data": {
        "type": "remote",
        "source": {
          "write": {
            "url": "email/{email_campaign_id}",
            "params": [{
              "name": "email_campaign_id",
              "value": "{id}"
            }]
          }
        }
      },
      "validation": {

      }
    },
    "add": {
      "label": "Email Campaign",
      "Tab_Title": "Add Email Campaign",
      "permission": {
        "roles": ["system-admin"]
      },
      "data": {
        "type": "remote",
        "source": {
          "write": {
            "url": "email"
          }
        }
      },
      "validation": {},
      "input": [{
        "label": "Title",
        "name": "title",
        "type": "text",
        "placeHolder": "Title",
        "value": "title",
        "localizable": true,
        "required": true
      }, {
        "label": "Email Template",
        "name": "emailtemplate",
        "required": true,
        "type": "select",
        "options": {
          "display": "title",
          "value": "id"
        },
        "value": "emailtemplate",
        "data": {
          "type": "remote",
          "source": {
            "read": {
              "url": "emailtemplateslist",
              "method": "GET",
              "params": []
            }
          }
        }
        },{
          "label": "Email Frame Template",
          "name": "frame",
          "type": "select",
          "options": {
            "display": "title",
            "value": "id",
            "none": true
          },
          "value": "frame",
          "data": {
            "type": "remote",
            "source": {
              "read": {
                "url": "frameemailtemplates",
                "method": "GET",
                "params": []
              }
            }
          }
        }, {
          "label": "Context",
          "name": "context",
          "required": true,
          "type": "select-related-static",
          "value": "context",
          "displayFields":["campaign"],
          "hiddenFields":["phishpot","from","reply","name"],
          "displayConditionValue": "training",
          "related": {
            "name": "emailserver",
            "url": "emailserver/context/",
            "method": "GET",
            "params": []
           },
          "options": {
            "display": "title",
            "value": "id"
          },
          "data": {
            "type": "static",
            "static": [
              {"id": "training", "title": "Training"},
              {"id": "phishing", "title": "Phishing"}
            ]
          }
        },{
        "label": "Email Server",
        "name": "emailserver",
        "required": true,
        "type": "select",
        "options": {
          "display": "title",
          "value": "id"
        },
        "value": "emailserver",
        "data": {
          "type": "remote",
          "source": {
            "read": {
              "url": "emailserver/context/training",
              "method": "GET",
              "params": []
            }
          }
        }
      }, {
        "label": "Phishing Campaign",
        "name": "phishpot",
        "type": "select",
        "required_validation":{
          "condition":"context",
          "conditionvalue":["phishing"]
        },
        "options": {
          "display": "title",
          "value": "id"
        },
        "value": "phishpot",
        "data": {
          "type": "remote",
          "source": {
            "read": {
              "url": "phishpot",
              "method": "GET",
              "params": []
            }
          }
        }
      }, {
        "label": "Training Campaign",
        "name": "campaign",
        "type": "select",
        "required_validation":{
          "condition":"context",
          "conditionvalue":["training"]
        },
        "options": {
          "display": "title",
          "value": "id"
        },
        "value": "campaign",
        "data": {
          "type": "remote",
          "source": {
            "read": {
              "url": "campaign",
              "method": "GET",
              "params": []
            }
          }
        }
      }, {
        "label": "Sender Name",
        "name": "name",
        "type": "text",
        "placeHolder": "Name",
        "value": "name"
      },
      {
          "label": "From",
          "name": "from",
          "type": "text",
          "placeHolder": "From",
          "value": "from"
      },
      {
          "label": "Reply",
          "name": "reply",
          "type": "text",
          "placeHolder": "Reply",
          "value": "reply"
      }]
    },
    "confirmPost": {
      "data": {
        "type": "remote",
        "source": {
          "confirmPost": {
            "url": "email/send",
            "params": [{
              "name": "email_campaign_id",
              "value": "{id}"
            }]
          }
        }
      }
    },
    "delete": {
      "data": {
        "type": "remote",
        "source": {
          "delete": {
            "url": "email/{email_campaign_id}",
            "params": [{
              "name": "email_campaign_id",
              "value": "{id}"
            }]
          }
        }
      },
      "conditionNotEqual":"context",
      "conditionValue": ["reset_password","user_login"]
    },
    "relations": [],
    "relationsServerSide": [
      {
        "name": "Users",
        "path": "emailcampaign/user"
      },
      {
        "name": "sent",
        "path": "emailcampaign/sent"
      }
    ],
    "tabs": {
      "users": [
        {
          "field": "Users",
          "title": "Manual",
          "type": "relation_server_side",
          "textAlign": "left"
        }, {
          "field": "user",
          "title": "Query",
          "type": "wizard",
          "wizard": "user",
          "textAlign": "left"
        }
      ]
    },
    "wizard": {
      "path": "wizards/emailcampaign/user"
    },
    "reroute_url": "/pages/bread/emailcampaign"

  }
