{
    "label": "Page Templates",
    "name": "page_template",
    "search":true,
    "paging":true,
    "browse": {
      "permission": {
        "roles": ["system-admin"]
      },
      "data": {
        "type": "remote",
        "source": {
          "read": {
            "url": "page",
            "method": "GET"
          }
        },
        "pageSize": 10
      },
      "columns": [{
        "field": "title",
        "title": "Title",
        "textAlign": "left"
      }],
      "model_tabs": [
        {
          "field": "view",
          "width": 80,
          "title": "View",
          "sortable": false,
          "type": "view",
          "textAlign": "left"
        }
      ]
    },
    "view": {
        "url": "execute/page/{page_template_id}"
      },
    "edit": {},
    "add": {},
    "delete": {},
    "reroute_url": "/pages/bread/pagetemplate"
  }
  