{
    
    "add": {
        "label": "pdf reports",
        "Tab_Title": "pdf reports",
        "permission": {
            "roles": ["system-admin"]
        },
        "data": {
            "type": "remote",
            "source": {
                "write": {
                    "url": "generate_report",
                    "method": "POST",
                    "params": []
                }
            }
        },
        "validation": {},
        "input": [
            {
                "label": "report type",
                "name": "type",
                "type": "select-related",
                "value": "title",
                "notRequiredInEdit": "true",
                "related": {
                    "name": "report_id",
                    "type": "2ndRelated",
                    "url": "get_reports_by_type/",
                    "method": "GET",
                    "params": []
                },
                "options": {
                    "display": "title",
                    "value": "id"
                },
                "data": {
                    "type": "remote",
                    "source": {
                        "read": {
                            "url": "get_reports_types",
                            "method": "GET",
                            "params": []
                        }
                    }
                },
                "required": false
            },
            {
                "label": "report name",
                "name": "report_id",
                "type": "select-related",
                "value": "report_id",
                "related": {
                    "name": "campaign",
                    "url": "get_campaigns_by_type/",
                    "method": "GET",
                    "params": []
                },
                "notRequiredInEdit": "true",
                "options": {
                    "display": "title",
                    "value": "id"
                },
                "data": {
                    "type": "remote",
                    "source": {
                        "read": {
                            "url": "get_reports_by_type/",
                            "method": "GET",
                            "params": []
                        }
                    }
                },
                "required": false
            },
            {
                "label": "Campaign",
                "name": "campaign",
                "type": "select",
                "value": "campaign",
                "notRequiredInEdit": "true",
                "options": {
                    "display": "title",
                    "value": "id"
                },
                "data": {
                    "type": "remote",
                    "source": {
                        "read": {
                            "url": "get_campaigns_by_type/",
                            "method": "GET",
                            "params": []
                        }
                    }
                },
                "required": false
            },
            {
                "label": "Language",
                "name": "language",
                "type": "radio",
                "value": "language",
                "options": {
                  "display": "title",
                  "value": "id"
                },
                "data": {
                  "type": "remote",
                  "source": {
                    "read": {
                      "url": "language",
                      "method": "GET",
                      "params": []
                    }
                  }
                },
                "required": true
            },
            {
                "label": "notes",
                "name": "notes",
                "type": "editor",
                "placeHolder": "Notes",
                "value": "notes",
                "localizable": false,
                "required": false
            }
        ],
        "submitTitle": "generate & download",
        "cancelButton" : false
    },
    "reading_folder": "temp_reports",
    "reroute_url": "/pages/bread/report-pdf"
}
