{
    "label": "Periodic Events",
    "name": "periodicevent",
    "search": true,
    "paging": true,
    "browse": {
        "layout": {
            "theme": "default",
            "class": "",
            "scroll": false,
            "footer": false
        },
        "permission": {
            "roles": ["system-admin"]
        },
        "data": {
            "type": "remote",
            "source": {
                "read": {
                    "url": "periodicevent",
                    "method": "GET"
                }
            },
            "pageSize": 10
        },
        "columns": [{
                "field": "title",
                "title": "Title",
                "textAlign": "left",
                "sortable": true
            },
            {
                "field": "start_date",
                "title": "Start Date",
                "textAlign": "left",
                "sortable": true
            },
            {
                "field": "end_date",
                "title": "End Date",
                "textAlign": "left",
                "sortable": true
            },
            {
                "field": "frequency_title",
                "title": "Frequency",
                "textAlign": "left",
                "sortable": true
            },
            {
                "field": "time",
                "title": "Time",
                "textAlign": "left",
                "sortable": true
            },
            {
                "field": "type_title",
                "title": "Type",
                "textAlign": "left",
                "sortable": true
            },
            {
                "field": "related_type_title",
                "title": "Resource Title",
                "textAlign": "left",
                "sortable": true
            },
            {
                "field": "created_at",
                "title": "Creation Date",
                "textAlign": "left",
                "sortable": true
            },
            {
                "field": "status_title",
                "title": "Status",
                "textAlign": "left",
                "sortable": true
            },
            {
                "field": "Delete",
                "permission": ["system-admin", "zisoft"],
                "width": 80,
                "title": "Cancel",
                "sortable": false,
                "type": "delete",
                "textAlign": "left"
            }
        ],
        "model_tabs": [{
                "field": "Edit",
                "width": 80,
                "title": "Periodic event details",
                "sortable": false,
                "type": "edit",
                "textAlign": "left",
                "condition": "status",
                "conditionValue": 1,
                "disabled_message": "Edit mode is enabled only in case status is new"
            },
            {
                "field": "user",
                "title": "Users",
                "condition": "type",
                "conditionValue": 1,
                "type": "tabs",
                "tabs": "users",
                "textAlign": "left"
            }
        ]
    },
    "edit": {
        "permission": {
            "roles": ["system-admin"]
        },
        "data": {
            "type": "remote",
            "source": {
                "write": {
                    "url": "periodicevent/{periodicevent_id}",
                    "method": "POST",
                    "params": [{
                        "name": "id",
                        "value": "{id}"
                    }]
                }
            }
        },
        "validation": {}
    },
    "add": {
        "label": "Event",
        "Tab_Title": "Add Periodic Event",
      "permission": {
            "roles": ["system-admin"]
        },
        "data": {
            "type": "remote",
            "source": {
                "write": {
                    "url": "periodicevent",
                    "method": "POST",
                    "params": []
                }
            }
        },
        "validation": {},
        "input": [{
                "label": "Title",
                "name": "title",
                "type": "text",
                "placeHolder": "Title",
                "value": "title",
                "localizable": true,
                "required": true
            },
            {
                "label": "Start Date",
                "name": "start_date",
                "type": "date",
                "value": "start_date",
                "required": true
            },
            {
                "label": "End Date",
                "name": "end_date",
                "type": "date",
                "value": "end_date",
                "required": true
            },
            {
                "label": "Frequency",
                "name": "frequency",
                "type": "select",
                "value": "frequency",
                "options": {
                    "display": "title",
                    "value": "id"
                },
                "data": {
                    "type": "remote",
                    "source": {
                        "read": {
                            "url": "periodiceventfrequency",
                            "method": "GET",
                            "params": []
                        }
                    }
                },
                "required": true
            },
            {
                "label": "Scheduled Time",
                "name": "time",
                "type": "time",
                "value": "time",
                "required": true
            },
            {
                "label": "Event Type",
                "name": "type",
                "type": "select-related",
                "value": "title",
                "notRequiredInEdit": "true",
                "displayFields":["report_type", "report_id", "campaign","language", "notes"],
                "hiddenFields":["related_type_id"],
                "displayConditionValue": "1",
                "related": {
                    "name": "related_type_id",
                    "url": "periodicevent/GetTypeDetails/",
                    "method": "GET",
                    "params": []
                },
                "options": {
                    "display": "title",
                    "value": "id"
                },
                "data": {
                    "type": "remote",
                    "source": {
                        "read": {
                            "url": "periodiceventtype",
                            "method": "GET",
                            "params": []
                        }
                    }
                },
                "required": true
            },
            {
                "label": "Event details",
                "name": "related_type_id",
                "type": "select",
                "value": "related_type_id",
                "notRequiredInEdit": "true",
                "options": {
                    "display": "title",
                    "value": "id"
                },
                "required_validation": {
                    "condition":"type",
                    "conditionvalue": ["2","3"]
                },
                "data": {
                    "type": "remote",
                    "source": {
                        "read": {
                            "url": "periodicevent/GetTypeDetails/",
                            "method": "GET",
                            "params": []
                        }
                    }
                },
                "required": true
            },
            {
                "label": "report type",
                "name": "report_type",
                "type": "select-related",
                "value": "report_type",
                "notRequiredInEdit": "true",
                "related": {
                    "name": "report_id",
                    "type": "2ndRelated",
                    "url": "get_reports_by_type/",
                    "method": "GET",
                    "params": []
                },
                "options": {
                    "display": "title",
                    "value": "id"
                },
                "data": {
                    "type": "remote",
                    "source": {
                        "read": {
                            "url": "get_reports_types",
                            "method": "GET",
                            "params": []
                        }
                    }
                },
                "required": false
            },
            {
                "label": "report name",
                "name": "report_id",
                "type": "select-related",
                "value": "report_id",
                "related": {
                    "name": "campaign",
                    "url": "get_campaigns_by_type/",
                    "method": "GET",
                    "params": []
                },
                "notRequiredInEdit": "true",
                "required_validation": {
                    "condition":"type",
                    "conditionvalue": ["1"]
                },
                "options": {
                    "display": "title",
                    "value": "id"
                },
                "data": {
                    "type": "remote",
                    "source": {
                        "read": {
                            "url": "get_reports_by_type/",
                            "method": "GET",
                            "params": []
                        }
                    }
                },
                "required": true
            },
            {
                "label": "Campaign",
                "name": "campaign",
                "type": "select",
                "value": "campaign",
                "notRequiredInEdit": "true",
                "options": {
                    "display": "title",
                    "value": "id"
                },
                "required_validation": {
                    "condition":"type",
                    "conditionvalue": ["1"]
                },
                "data": {
                    "type": "remote",
                    "source": {
                        "read": {
                            "url": "get_campaigns_by_type/",
                            "method": "GET",
                            "params": []
                        }
                    }
                },
                "required": true
            },
            {
                "label": "Language",
                "name": "language",
                "type": "radio",
                "value": "language",
                "notRequiredInEdit": "true",
                "options": {
                  "display": "title",
                  "value": "id"
                },
                "data": {
                  "type": "remote",
                  "source": {
                    "read": {
                      "url": "language",
                      "method": "GET",
                      "params": []
                    }
                  }
                },
                "required": true
            },
            {
                "label": "notes",
                "name": "notes",
                "type": "editor",
                "placeHolder": "Notes",
                "value": "notes",
                "notRequiredInEdit": "true",
                "localizable": false,
                "required": false
            }
        ]
    },
    "wizard": {
        "path": "wizards/periodicEvents/user"
    },
    "delete": {
        "data": {
            "type": "remote",
            "source": {
                "delete": {
                    "url": "periodicevent/{periodicevent_id}",
                    "method": "POST",
                    "params": [{
                        "name": "id",
                        "value": "{id}"
                    }]
                }
            }
        }
    },
    "relations": [{
        "name": "Users",
        "path": "periodicEvents/user"
    }],
    "tabs": {
        "users": [{
            "field": "Users",
            "title": "Manual",
            "type": "relation",
            "textAlign": "left"
        }, {
            "field": "user",
            "title": "Query",
            "type": "wizard",
            "wizard": "user",
            "textAlign": "left"
        }]
    },
    "reroute_url": "/pages/bread/periodicevents"
}
