{
    "label": "Users",
    "name": "periodicevent",
    "search":true,
    "paging":true,
    "browse": {
        "permission": {
            "roles": [
                "system-admin"
            ]
        },
        "data": {
            "type": "remote",
            "source": {
                "read": {
                    "url": "periodicevent/{mid}/user",
                    "method": "GET",
                    "params": [
                        {
                            "name": "eid",
                            "value": "[id]"
                        }
                    ]
                }
            },
            "pageSize": 10
        },
        "columns": [
            {
                "field": "first_name",
                "title": "First Name",
                "textAlign": "left",
                "sortable":true
            },
            {
                "field": "last_name",
                "title": "Last Name",
                "textAlign": "left",
                "sortable":true
            },
            {
                "field": "username",
                "title": "Username",
                "textAlign": "left",
                "sortable":true
            },
            {
                "field": "email",
                "title": "Email",
                "textAlign": "left",
                "sortable":true
            },
            {
                "field": "Delete",
                "width": 80,
                "title": "Remove",
                "sortable": false,
                "type": "delete",
                "textAlign": "left"
            }
        ]
    },
    "edit": {},
    "add": {
        "label": "Add User",
        "permission": {
            "roles": [
                "system-admin"
            ]
        },
        "data": {
            "type": "remote",
            "source": {
                "write": {
                    "url": "periodicevent/{mid}/user",
                    "params": [
                        {
                            "name": "eid",
                            "value": "[id]"
                        }
                    ]
                }
            }
        },
        "validation": {},
        "input": [
            {
                "label": "User",
                "name": "users",
                "type": "check-multiple",
                "value": "users",
                "empty_message": "No users exist to be added",
                "relation": {
                    "name": "Add user",
                    "path": "periodicEvents/Add_user"
                },
                "data": {
                    "type": "remote",
                    "source": {
                        "read": {
                            "url": "periodicevent/{mid}/!user",
                            "params": [
                                {
                                    "name": "eid",
                                    "value": "[id]"
                                }
                            ]
                        }
                    }
                },
                "required": true
            }
        ]
    },
    "delete": {
        "data": {
            "type": "remote",
            "source": {
                "delete": {
                    "url": "periodicevent/{mid}/user/{sid}",
                    "params": [
                        {
                            "name": "uid",
                            "value": "{id}"
                        },
                        {
                            "name": "eid",
                            "value": "[id]"
                        }
                    ]
                }
            }
        }
    }
}
